---
http_interactions:
- request:
    method: get
    uri: https://api.flickr.com/services/rest?api_key=<api_key>&format=json&method=flickr.photos.search&nojsoncallback=1&tag=skyline&text=boston,%20ma
    body:
      encoding: US-ASCII
      string: ''
    headers:
      User-Agent:
      - Faraday v2.2.0
      Accept-Encoding:
      - gzip;q=1.0,deflate;q=0.6,identity;q=0.3
      Accept:
      - "*/*"
  response:
    status:
      code: 200
      message: OK
    headers:
      Content-Type:
      - application/json
      Transfer-Encoding:
      - chunked
      Connection:
      - keep-alive
      Date:
      - Mon, 07 Mar 2022 17:16:11 GMT
      Server:
      - Apache/2.4.52 (Ubuntu)
      Set-Cookie:
      - ccc=%7B%22needsConsent%22%3Afalse%2C%22managed%22%3A0%2C%22changed%22%3A0%2C%22info%22%3A%7B%22cookieBlock%22%3A%7B%22level%22%3A0%2C%22blockRan%22%3A0%7D%7D%7D;
        expires=Wed, 06-Apr-2022 17:16:10 GMT; Max-Age=2592000; path=/; domain=.flickr.com
      X-Content-Type-Options:
      - nosniff
      X-Frame-Options:
      - SAMEORIGIN
      X-Cache:
      - Miss from cloudfront
      Via:
      - 1.1 88a0d5b7714dfdc4e8665b84ecf6f994.cloudfront.net (CloudFront)
      X-Amz-Cf-Pop:
      - DEN50-C1
      X-Amz-Cf-Id:
      - OWDegZJcRDgdmn6D8kSzTZsOmOJJABPymHiuy9Nz_4mV14OFvkKJ8A==
    body:
      encoding: UTF-8
      string: '{"photos":{"page":1,"pages":7776,"perpage":100,"total":777553,"photo":[{"id":"51924222433","owner":"155819248@N02","secret":"1a6ef66604","server":"65535","farm":66,"title":"7330C1AD-44D9-4251-8DE8-D19389A6CCBD_1_105_c","ispublic":1,"isfriend":0,"isfamily":0},{"id":"51924129426","owner":"155819248@N02","secret":"f6e74a9fe9","server":"65535","farm":66,"title":"FFD0F98B-ED2B-4945-90FD-92FECBCFC530_1_105_c","ispublic":1,"isfriend":0,"isfamily":0},{"id":"51924757200","owner":"155819248@N02","secret":"af6bf86234","server":"65535","farm":66,"title":"1831F9E3-A24B-47E6-A027-B0F60213757A_1_105_c","ispublic":1,"isfriend":0,"isfamily":0},{"id":"51924222403","owner":"155819248@N02","secret":"6652e2e039","server":"65535","farm":66,"title":"66FFCDD6-DF5A-44D9-A1F4-17F620BAA74A_1_105_c","ispublic":1,"isfriend":0,"isfamily":0},{"id":"51924464179","owner":"155819248@N02","secret":"398d64fae0","server":"65535","farm":66,"title":"7D5F6BCC-58D5-4A34-9C22-880ED11DC979_1_105_c","ispublic":1,"isfriend":0,"isfamily":0},{"id":"51923153567","owner":"155819248@N02","secret":"955d907fe3","server":"65535","farm":66,"title":"2E855964-56EE-4126-B7F3-AEC23A6A8244_1_105_c","ispublic":1,"isfriend":0,"isfamily":0},{"id":"51924129421","owner":"155819248@N02","secret":"a3e971f266","server":"65535","farm":66,"title":"89250CC8-EB32-485B-B3F2-216B808ABEF7_1_105_c","ispublic":1,"isfriend":0,"isfamily":0},{"id":"51924129406","owner":"155819248@N02","secret":"3c8519d715","server":"65535","farm":66,"title":"9F6691B6-BE0F-4BF7-91F5-035C97488C62_1_105_c","ispublic":1,"isfriend":0,"isfamily":0},{"id":"51924464139","owner":"155819248@N02","secret":"87e0c0ab50","server":"65535","farm":66,"title":"D9F7A5F9-A931-4A1D-A0C6-B0DC0E3ED8E0_1_105_c","ispublic":1,"isfriend":0,"isfamily":0},{"id":"51924464144","owner":"155819248@N02","secret":"341ddd9b10","server":"65535","farm":66,"title":"C68850B8-6C9F-4BF6-9F59-D0AE098E1041_1_105_c","ispublic":1,"isfriend":0,"isfamily":0},{"id":"51923153532","owner":"155819248@N02","secret":"10711b64f3","server":"65535","farm":66,"title":"76DF720F-FB3B-4696-AA44-64C3752C5039_1_105_c","ispublic":1,"isfriend":0,"isfamily":0},{"id":"51924129361","owner":"155819248@N02","secret":"62f133596f","server":"65535","farm":66,"title":"C084F6C9-99E9-4B22-A1C9-8641C7E56E8E_1_105_c","ispublic":1,"isfriend":0,"isfamily":0},{"id":"51924757175","owner":"155819248@N02","secret":"23173902ca","server":"65535","farm":66,"title":"9734DC07-A011-4187-802C-7B95ECB8B2A4_1_105_c","ispublic":1,"isfriend":0,"isfamily":0},{"id":"51924757140","owner":"155819248@N02","secret":"2183f25f02","server":"65535","farm":66,"title":"691C859F-D34F-4DF5-8D95-FD6A0A0872F4_1_105_c","ispublic":1,"isfriend":0,"isfamily":0},{"id":"51924757165","owner":"155819248@N02","secret":"4e47937828","server":"65535","farm":66,"title":"68AAB5DE-348E-4CB3-B5E5-0EC028150C27_1_105_c","ispublic":1,"isfriend":0,"isfamily":0},{"id":"51924222328","owner":"155819248@N02","secret":"a5f4f8be84","server":"65535","farm":66,"title":"1D745FA3-7B8E-4E9C-A97E-3FEAF5152F3C_1_105_c","ispublic":1,"isfriend":0,"isfamily":0},{"id":"51924129351","owner":"155819248@N02","secret":"82d78fc8e5","server":"65535","farm":66,"title":"AC8A9AF0-2443-4BCA-9451-D309BD0C0178_1_105_c","ispublic":1,"isfriend":0,"isfamily":0},{"id":"51924757115","owner":"155819248@N02","secret":"0d2f9566e5","server":"65535","farm":66,"title":"29FA5530-F963-45C4-8221-0739A1980B6A_1_105_c","ispublic":1,"isfriend":0,"isfamily":0},{"id":"51924222288","owner":"155819248@N02","secret":"ce41b41c72","server":"65535","farm":66,"title":"ABCA7D30-3EE3-484E-986E-719081D1F421_1_105_c","ispublic":1,"isfriend":0,"isfamily":0},{"id":"51923153482","owner":"155819248@N02","secret":"6322e340f6","server":"65535","farm":66,"title":"418AD434-A116-4B24-99B2-619B594786C9_1_105_c","ispublic":1,"isfriend":0,"isfamily":0},{"id":"51924129311","owner":"155819248@N02","secret":"335117b17b","server":"65535","farm":66,"title":"BB7F7EDA-9573-4999-BE09-2B75828C51D2_1_105_c","ispublic":1,"isfriend":0,"isfamily":0},{"id":"51924464049","owner":"155819248@N02","secret":"d58b141369","server":"65535","farm":66,"title":"6F4F6B54-0D54-490A-82D5-AAD945AE53EC_1_105_c","ispublic":1,"isfriend":0,"isfamily":0},{"id":"51924757045","owner":"155819248@N02","secret":"4c401df54b","server":"65535","farm":66,"title":"E2A55033-9FD8-45D6-A443-D83F4B106FF9_1_105_c","ispublic":1,"isfriend":0,"isfamily":0},{"id":"51924129291","owner":"155819248@N02","secret":"4ed4661815","server":"65535","farm":66,"title":"791D998F-0542-4D35-9747-A63ECAAC38BE_1_105_c","ispublic":1,"isfriend":0,"isfamily":0},{"id":"51924757055","owner":"155819248@N02","secret":"a7b41d01da","server":"65535","farm":66,"title":"101AD6B6-AE31-411E-A4B3-45FD333203E4_1_105_c","ispublic":1,"isfriend":0,"isfamily":0},{"id":"51924464059","owner":"155819248@N02","secret":"713b8f988c","server":"65535","farm":66,"title":"6E3F0807-52A4-4001-8A12-EE7125FD6FF9_1_105_c","ispublic":1,"isfriend":0,"isfamily":0},{"id":"51923153422","owner":"155819248@N02","secret":"1c4149d056","server":"65535","farm":66,"title":"4F7C6E6F-213F-4170-AF6B-548FDF2D7801_1_105_c","ispublic":1,"isfriend":0,"isfamily":0},{"id":"51924222203","owner":"155819248@N02","secret":"3c7d33a6e0","server":"65535","farm":66,"title":"5FBBBB61-6583-43F7-8528-F58DF191692B_1_105_c","ispublic":1,"isfriend":0,"isfamily":0},{"id":"51923153447","owner":"155819248@N02","secret":"91a6239f41","server":"65535","farm":66,"title":"FF2E06E8-536C-407D-ACD6-2AD2DB8D29AA_1_105_c","ispublic":1,"isfriend":0,"isfamily":0},{"id":"51923153427","owner":"155819248@N02","secret":"05fae36eb3","server":"65535","farm":66,"title":"7E7FE24B-1343-4FD4-A5DC-C16E877FF6D2_1_105_c","ispublic":1,"isfriend":0,"isfamily":0},{"id":"51924464034","owner":"155819248@N02","secret":"1e871136df","server":"65535","farm":66,"title":"A4011CAE-B304-4195-951A-3F40554819B8_1_105_c","ispublic":1,"isfriend":0,"isfamily":0},{"id":"51924756965","owner":"155819248@N02","secret":"92be80766a","server":"65535","farm":66,"title":"9B7DADEE-20DD-4F64-B53C-6E266ADB8D18_1_105_c","ispublic":1,"isfriend":0,"isfamily":0},{"id":"51924463989","owner":"155819248@N02","secret":"576a49ff22","server":"65535","farm":66,"title":"A3A4DC79-ADC1-428D-B599-9B413FED969F_1_105_c","ispublic":1,"isfriend":0,"isfamily":0},{"id":"51924222178","owner":"155819248@N02","secret":"cb7e2199aa","server":"65535","farm":66,"title":"EC937F73-42AF-4E25-AA01-8025BB891270_1_105_c","ispublic":1,"isfriend":0,"isfamily":0},{"id":"51924129211","owner":"155819248@N02","secret":"96e7aacca6","server":"65535","farm":66,"title":"FE886AE2-2674-4DCF-A795-92C4FE2DFE30_1_105_c","ispublic":1,"isfriend":0,"isfamily":0},{"id":"51924222153","owner":"155819248@N02","secret":"16c57ce759","server":"65535","farm":66,"title":"E1E9FA9A-7BC3-4ECA-8937-2CEE67A31749_1_201_a","ispublic":1,"isfriend":0,"isfamily":0},{"id":"51924129196","owner":"155819248@N02","secret":"79c7dbab17","server":"65535","farm":66,"title":"E79230BD-3AE7-425F-84CC-1DEB37B04DC2_1_105_c","ispublic":1,"isfriend":0,"isfamily":0},{"id":"51923153237","owner":"155819248@N02","secret":"ca7cefa778","server":"65535","farm":66,"title":"49A821A0-7A11-4481-AFC2-91CC9D58C683_1_105_c","ispublic":1,"isfriend":0,"isfamily":0},{"id":"51924756905","owner":"155819248@N02","secret":"0a2959d36f","server":"65535","farm":66,"title":"6E55EEBC-B212-4D49-AD04-FF30F0C2219D_1_105_c","ispublic":1,"isfriend":0,"isfamily":0},{"id":"51923153227","owner":"155819248@N02","secret":"b4068b7698","server":"65535","farm":66,"title":"F8EFFA7D-60D6-4CA2-81EB-AAF5AC4ABB8A_1_105_c","ispublic":1,"isfriend":0,"isfamily":0},{"id":"51924463869","owner":"155819248@N02","secret":"c2cf8eae86","server":"65535","farm":66,"title":"17487391-BCD0-4545-9769-09DFAEB6B26C_1_105_c","ispublic":1,"isfriend":0,"isfamily":0},{"id":"51924222013","owner":"155819248@N02","secret":"29c0841fcf","server":"65535","farm":66,"title":"1776C6F2-3B90-4778-9659-57E6D0FF80B8_1_105_c","ispublic":1,"isfriend":0,"isfamily":0},{"id":"51924222018","owner":"155819248@N02","secret":"ef26eede7d","server":"65535","farm":66,"title":"A492D2DF-4A84-4214-A697-1031ED22D9B8_1_105_c","ispublic":1,"isfriend":0,"isfamily":0},{"id":"51924221983","owner":"155819248@N02","secret":"e7443da449","server":"65535","farm":66,"title":"6166DD71-BA70-4101-B50B-269838B7D57C_1_105_c","ispublic":1,"isfriend":0,"isfamily":0},{"id":"51924463794","owner":"155819248@N02","secret":"e4ff4fb1b7","server":"65535","farm":66,"title":"F23CBD01-6659-49B7-9B87-1319B889BB12_1_105_c","ispublic":1,"isfriend":0,"isfamily":0},{"id":"51923153177","owner":"155819248@N02","secret":"29103f6766","server":"65535","farm":66,"title":"77FCB3D8-2D40-42DA-8DCC-588A4E417C6C_1_105_c","ispublic":1,"isfriend":0,"isfamily":0},{"id":"51924463774","owner":"155819248@N02","secret":"c9fe4fcc71","server":"65535","farm":66,"title":"3E3A060E-D176-4E70-BD22-EB55CF5CFC45_1_105_c","ispublic":1,"isfriend":0,"isfamily":0},{"id":"51924129021","owner":"155819248@N02","secret":"e11bc7459f","server":"65535","farm":66,"title":"C9F1C85A-2B49-4804-A5AA-068D797A28EC_1_105_c","ispublic":1,"isfriend":0,"isfamily":0},{"id":"51924463759","owner":"155819248@N02","secret":"26b121297a","server":"65535","farm":66,"title":"E5723FA5-D04D-4B10-9536-69AC2ACC779F_1_105_c","ispublic":1,"isfriend":0,"isfamily":0},{"id":"51924463719","owner":"155819248@N02","secret":"44de1792b4","server":"65535","farm":66,"title":"FA6C358A-C7D9-4F65-8499-BED1184997F4_1_105_c","ispublic":1,"isfriend":0,"isfamily":0},{"id":"51923153072","owner":"155819248@N02","secret":"682a0f75a9","server":"65535","farm":66,"title":"27BA433E-7B02-4909-94E5-3585E54D8EF9_1_105_c","ispublic":1,"isfriend":0,"isfamily":0},{"id":"51924463714","owner":"155819248@N02","secret":"cf07b4e159","server":"65535","farm":66,"title":"9F4D504E-B9DB-467D-B142-0C73ADCE5DE7_1_105_c","ispublic":1,"isfriend":0,"isfamily":0},{"id":"51923153092","owner":"155819248@N02","secret":"287dae6496","server":"65535","farm":66,"title":"CF407C92-72EC-4B0D-BB81-2C47F06A6AF1_1_105_c","ispublic":1,"isfriend":0,"isfamily":0},{"id":"51924111051","owner":"149714906@N06","secret":"fa42de702f","server":"65535","farm":66,"title":"US
        Coast Guard RFC Homeporting Base","ispublic":1,"isfriend":0,"isfamily":0},{"id":"51923134807","owner":"149714906@N06","secret":"fcfa451dca","server":"65535","farm":66,"title":"US
        Coast Guard RFC Homeporting Base","ispublic":1,"isfriend":0,"isfamily":0},{"id":"51924122748","owner":"96545657@N00","secret":"672f9068f9","server":"65535","farm":66,"title":"DSC_1050.jpg","ispublic":1,"isfriend":0,"isfamily":0},{"id":"51924122178","owner":"96545657@N00","secret":"09082fc274","server":"65535","farm":66,"title":"DSC_1047.jpg","ispublic":1,"isfriend":0,"isfamily":0},{"id":"51923053567","owner":"96545657@N00","secret":"f00052d83e","server":"65535","farm":66,"title":"DSC_1046.jpg","ispublic":1,"isfriend":0,"isfamily":0},{"id":"51924363504","owner":"96545657@N00","secret":"fd101d278b","server":"65535","farm":66,"title":"DSC_1043.jpg","ispublic":1,"isfriend":0,"isfamily":0},{"id":"51923052867","owner":"96545657@N00","secret":"01bf5b8fb4","server":"65535","farm":66,"title":"DSC_1040.jpg","ispublic":1,"isfriend":0,"isfamily":0},{"id":"51924362834","owner":"96545657@N00","secret":"0d0903ee90","server":"65535","farm":66,"title":"DSC_1036.jpg","ispublic":1,"isfriend":0,"isfamily":0},{"id":"51924656440","owner":"96545657@N00","secret":"1816ea24d1","server":"65535","farm":66,"title":"DSC_1033.jpg","ispublic":1,"isfriend":0,"isfamily":0},{"id":"51924656075","owner":"96545657@N00","secret":"eaacd0886a","server":"65535","farm":66,"title":"DSC_1031.jpg","ispublic":1,"isfriend":0,"isfamily":0},{"id":"51923050662","owner":"96545657@N00","secret":"fee61eb479","server":"65535","farm":66,"title":"DSC_1029.jpg","ispublic":1,"isfriend":0,"isfamily":0},{"id":"51924360409","owner":"96545657@N00","secret":"a2d20b4a7f","server":"65535","farm":66,"title":"DSC_1026.jpg","ispublic":1,"isfriend":0,"isfamily":0},{"id":"51924025906","owner":"96545657@N00","secret":"2a23ce7cc3","server":"65535","farm":66,"title":"DSC_1023.jpg","ispublic":1,"isfriend":0,"isfamily":0},{"id":"51924118083","owner":"96545657@N00","secret":"98a0cff6df","server":"65535","farm":66,"title":"DSC_1022.jpg","ispublic":1,"isfriend":0,"isfamily":0},{"id":"51924025356","owner":"96545657@N00","secret":"d762f8cd3f","server":"65535","farm":66,"title":"DSC_1020.jpg","ispublic":1,"isfriend":0,"isfamily":0},{"id":"51923853443","owner":"34610466@N05","secret":"dc8bc56afb","server":"65535","farm":66,"title":"Slide151","ispublic":1,"isfriend":0,"isfamily":0},{"id":"51924105769","owner":"194628431@N03","secret":"54534803ee","server":"65535","farm":66,"title":"Off
        campus housing Boston MA Houses for rent Boston MA Houses for sale Boston
        MA","ispublic":1,"isfriend":0,"isfamily":0},{"id":"51924102519","owner":"194628431@N03","secret":"c2c9ab382a","server":"65535","farm":66,"title":"Apartment
        rental agency Watertown MA Real estate companies near me Watertown MA","ispublic":1,"isfriend":0,"isfamily":0},{"id":"51922782972","owner":"194628431@N03","secret":"32b3a29bba","server":"65535","farm":66,"title":"Apartment
        rental agency Newton MA Real estate companies near me Newton MA Real estate
        agent Newton MA","ispublic":1,"isfriend":0,"isfamily":0},{"id":"51923753496","owner":"194628431@N03","secret":"d3d261c3a5","server":"65535","farm":66,"title":"Apartment
        rental agency Allston MA Real estate companies near me Allston MA","ispublic":1,"isfriend":0,"isfamily":0},{"id":"51924378150","owner":"194628431@N03","secret":"4c979f49b1","server":"65535","farm":66,"title":"Apartment
        rental agency Brighton MA Real estate companies near me Brighton MA","ispublic":1,"isfriend":0,"isfamily":0},{"id":"51923243765","owner":"61298119@N03","secret":"a19f7d5132","server":"65535","farm":66,"title":"Five
        Boats","ispublic":1,"isfriend":0,"isfamily":0},{"id":"51922712638","owner":"61298119@N03","secret":"4486c0bd3b","server":"65535","farm":66,"title":"Vintage
        and Modern Mono","ispublic":1,"isfriend":0,"isfamily":0},{"id":"51921646867","owner":"61298119@N03","secret":"4d1a97a8eb","server":"65535","farm":66,"title":"Three
        Tugs Off Charlestown","ispublic":1,"isfriend":0,"isfamily":0},{"id":"51923044965","owner":"23431299@N07","secret":"6a6cf995b6","server":"65535","farm":66,"title":"220306UKAP002","ispublic":1,"isfriend":0,"isfamily":0},{"id":"51923044935","owner":"23431299@N07","secret":"65f9da573e","server":"65535","farm":66,"title":"220306UKAP003","ispublic":1,"isfriend":0,"isfamily":0},{"id":"51921452027","owner":"23431299@N07","secret":"b612e59b75","server":"65535","farm":66,"title":"220306UKAP005","ispublic":1,"isfriend":0,"isfamily":0},{"id":"51923044910","owner":"23431299@N07","secret":"6cd45b2016","server":"65535","farm":66,"title":"220306UKAP007","ispublic":1,"isfriend":0,"isfamily":0},{"id":"51921451962","owner":"23431299@N07","secret":"0f3aa38522","server":"65535","farm":66,"title":"220306UKAP010","ispublic":1,"isfriend":0,"isfamily":0},{"id":"51922422751","owner":"23431299@N07","secret":"0c96139507","server":"65535","farm":66,"title":"220306UKAP012","ispublic":1,"isfriend":0,"isfamily":0},{"id":"51921451907","owner":"23431299@N07","secret":"a4b74d4a5d","server":"65535","farm":66,"title":"220306UKAP015","ispublic":1,"isfriend":0,"isfamily":0},{"id":"51922756824","owner":"23431299@N07","secret":"c14e1b4c3e","server":"65535","farm":66,"title":"220306UKAP013","ispublic":1,"isfriend":0,"isfamily":0},{"id":"51923044830","owner":"23431299@N07","secret":"ce5e7b432c","server":"65535","farm":66,"title":"220306UKAP016","ispublic":1,"isfriend":0,"isfamily":0},{"id":"51921451862","owner":"23431299@N07","secret":"6047e0f295","server":"65535","farm":66,"title":"220306UKAP017","ispublic":1,"isfriend":0,"isfamily":0},{"id":"51922756739","owner":"23431299@N07","secret":"2a7e194193","server":"65535","farm":66,"title":"220306UKAP019","ispublic":1,"isfriend":0,"isfamily":0},{"id":"51921451817","owner":"23431299@N07","secret":"75a184bf7b","server":"65535","farm":66,"title":"220306UKAP020","ispublic":1,"isfriend":0,"isfamily":0},{"id":"51922516798","owner":"23431299@N07","secret":"f741dfdcc4","server":"65535","farm":66,"title":"220306UKAP021","ispublic":1,"isfriend":0,"isfamily":0},{"id":"51922756644","owner":"23431299@N07","secret":"0c0a3e019d","server":"65535","farm":66,"title":"220306UKAP022","ispublic":1,"isfriend":0,"isfamily":0},{"id":"51922756584","owner":"23431299@N07","secret":"7ae79a9e0d","server":"65535","farm":66,"title":"220306UKAP023","ispublic":1,"isfriend":0,"isfamily":0},{"id":"51922516688","owner":"23431299@N07","secret":"b7b1aa837e","server":"65535","farm":66,"title":"220306UKAP025","ispublic":1,"isfriend":0,"isfamily":0},{"id":"51922756539","owner":"23431299@N07","secret":"6d29ee97fb","server":"65535","farm":66,"title":"220306UKAP027","ispublic":1,"isfriend":0,"isfamily":0},{"id":"51921451572","owner":"23431299@N07","secret":"f70771900f","server":"65535","farm":66,"title":"220306UKAP028","ispublic":1,"isfriend":0,"isfamily":0},{"id":"51922756504","owner":"23431299@N07","secret":"52bb44bc98","server":"65535","farm":66,"title":"220306UKAP032","ispublic":1,"isfriend":0,"isfamily":0},{"id":"51922422396","owner":"23431299@N07","secret":"49f5c511aa","server":"65535","farm":66,"title":"220306UKAP031","ispublic":1,"isfriend":0,"isfamily":0},{"id":"51922516618","owner":"23431299@N07","secret":"17e475192a","server":"65535","farm":66,"title":"220306UKAP033","ispublic":1,"isfriend":0,"isfamily":0},{"id":"51922422361","owner":"23431299@N07","secret":"36129ef83c","server":"65535","farm":66,"title":"220306UKAP034","ispublic":1,"isfriend":0,"isfamily":0},{"id":"51922422336","owner":"23431299@N07","secret":"44efd5f943","server":"65535","farm":66,"title":"220306UKAP035","ispublic":1,"isfriend":0,"isfamily":0}]},"stat":"ok"}'
  recorded_at: Mon, 07 Mar 2022 17:16:11 GMT
recorded_with: VCR 6.0.0
