---
http_interactions:
- request:
    method: get
    uri: https://api.flickr.com/services/rest?api_key=<api_key>&format=json&method=flickr.photos.search&nojsoncallback=1&tag=skyline&text=boston,%20ma
    body:
      encoding: US-ASCII
      string: ''
    headers:
      User-Agent:
      - Faraday v2.2.0
      Accept-Encoding:
      - gzip;q=1.0,deflate;q=0.6,identity;q=0.3
      Accept:
      - "*/*"
  response:
    status:
      code: 200
      message: OK
    headers:
      Content-Type:
      - application/json
      Transfer-Encoding:
      - chunked
      Connection:
      - keep-alive
      Date:
      - Sun, 06 Mar 2022 04:42:43 GMT
      Server:
      - Apache/2.4.52 (Ubuntu)
      Set-Cookie:
      - ccc=%7B%22needsConsent%22%3Afalse%2C%22managed%22%3A0%2C%22changed%22%3A0%2C%22info%22%3A%7B%22cookieBlock%22%3A%7B%22level%22%3A0%2C%22blockRan%22%3A0%7D%7D%7D;
        expires=Tue, 05-Apr-2022 04:42:43 GMT; Max-Age=2592000; path=/; domain=.flickr.com
      X-Content-Type-Options:
      - nosniff
      X-Frame-Options:
      - SAMEORIGIN
      X-Cache:
      - Miss from cloudfront
      Via:
      - 1.1 84a93a4cc4dda36d37474901b2fb21c8.cloudfront.net (CloudFront)
      X-Amz-Cf-Pop:
      - DEN50-C1
      X-Amz-Cf-Id:
      - seNktBl18YAyiNxRE67bttFfhQctboe7cdQR6AHddqkkc3sSDacL1A==
    body:
      encoding: UTF-8
      string: '{"photos":{"page":1,"pages":7637,"perpage":100,"total":763669,"photo":[{"id":"51920256281","owner":"61298119@N03","secret":"d38be46348","server":"65535","farm":66,"title":"Hill
        and Waterfront 2","ispublic":1,"isfriend":0,"isfamily":0},{"id":"51920587459","owner":"61298119@N03","secret":"6bd76b860b","server":"65535","farm":66,"title":"Tug
        and Ice","ispublic":1,"isfriend":0,"isfamily":0},{"id":"51920070766","owner":"38315261@N00","secret":"a37ac4cf99","server":"65535","farm":66,"title":"Vincent
        van Gogh, Postman Joseph Roulin, 1888, Oil on canvas, 10\/3\/21 #mfaboston","ispublic":1,"isfriend":0,"isfamily":0},{"id":"51919564098","owner":"57229592@N03","secret":"847a3a85e0","server":"65535","farm":66,"title":"Richard
        Vaughn Kennedy, circa 1937","ispublic":1,"isfriend":0,"isfamily":0},{"id":"51919614704","owner":"48232993@N00","secret":"6dd1156958","server":"65535","farm":66,"title":"bucket
        emptying","ispublic":1,"isfriend":0,"isfamily":0},{"id":"51919614074","owner":"48232993@N00","secret":"4fe496dbf7","server":"65535","farm":66,"title":"dripping
        bucket","ispublic":1,"isfriend":0,"isfamily":0},{"id":"51918316827","owner":"48232993@N00","secret":"bd5fe704ee","server":"65535","farm":66,"title":"crawler
        crane and bucket","ispublic":1,"isfriend":0,"isfamily":0},{"id":"51918316427","owner":"48232993@N00","secret":"a2ec958db2","server":"65535","farm":66,"title":"dredging
        off Castle Island","ispublic":1,"isfriend":0,"isfamily":0},{"id":"51919283761","owner":"48232993@N00","secret":"c29678bc05","server":"65535","farm":66,"title":"dredging
        off Castle Island","ispublic":1,"isfriend":0,"isfamily":0},{"id":"51919283366","owner":"48232993@N00","secret":"f110666314","server":"65535","farm":66,"title":"wrack
        line, N side Castle Island","ispublic":1,"isfriend":0,"isfamily":0},{"id":"51919283071","owner":"48232993@N00","secret":"c7db4870a3","server":"65535","farm":66,"title":"tide-stained
        riprap","ispublic":1,"isfriend":0,"isfamily":0},{"id":"51919612164","owner":"48232993@N00","secret":"56034a1fcf","server":"65535","farm":66,"title":"pilings
        at low tide","ispublic":1,"isfriend":0,"isfamily":0},{"id":"51919900735","owner":"48232993@N00","secret":"8035177e7f","server":"65535","farm":66,"title":"tugboat
        Shannon Dann","ispublic":1,"isfriend":0,"isfamily":0},{"id":"51918227568","owner":"49292977@N08","secret":"9c211b5d6c","server":"65535","farm":66,"title":"AS
        YOU LIKE IT","ispublic":1,"isfriend":0,"isfamily":0},{"id":"51918743110","owner":"49292977@N08","secret":"b57a550b15","server":"65535","farm":66,"title":"AS
        YOU LIKE IT","ispublic":1,"isfriend":0,"isfamily":0},{"id":"51918449854","owner":"49292977@N08","secret":"42dff9e297","server":"65535","farm":66,"title":"AS
        YOU LIKE IT","ispublic":1,"isfriend":0,"isfamily":0},{"id":"51918447379","owner":"49292977@N08","secret":"24de4928c2","server":"65535","farm":66,"title":"AS
        YOU LIKE IT","ispublic":1,"isfriend":0,"isfamily":0},{"id":"51917152597","owner":"49292977@N08","secret":"6b5ce35598","server":"65535","farm":66,"title":"AS
        YOU LIKE IT","ispublic":1,"isfriend":0,"isfamily":0},{"id":"51918734505","owner":"49292977@N08","secret":"f5eea67498","server":"65535","farm":66,"title":"AS
        YOU LIKE IT","ispublic":1,"isfriend":0,"isfamily":0},{"id":"51918212018","owner":"49292977@N08","secret":"aefb0581ef","server":"65535","farm":66,"title":"AS
        YOU LIKE IT","ispublic":1,"isfriend":0,"isfamily":0},{"id":"51918727795","owner":"49292977@N08","secret":"76d30d0dd0","server":"65535","farm":66,"title":"AS
        YOU LIKE IT","ispublic":1,"isfriend":0,"isfamily":0},{"id":"51917140657","owner":"49292977@N08","secret":"fa2048902e","server":"65535","farm":66,"title":"AS
        YOU LIKE IT","ispublic":1,"isfriend":0,"isfamily":0},{"id":"51918430709","owner":"49292977@N08","secret":"fa25bd408f","server":"65535","farm":66,"title":"AS
        YOU LIKE IT","ispublic":1,"isfriend":0,"isfamily":0},{"id":"51918099536","owner":"49292977@N08","secret":"e9c11c1e04","server":"65535","farm":66,"title":"AS
        YOU LIKE IT","ispublic":1,"isfriend":0,"isfamily":0},{"id":"51918715150","owner":"49292977@N08","secret":"e0d0f11e94","server":"65535","farm":66,"title":"AS
        YOU LIKE IT","ispublic":1,"isfriend":0,"isfamily":0},{"id":"51918422389","owner":"49292977@N08","secret":"61137bf49f","server":"65535","farm":66,"title":"AS
        YOU LIKE IT","ispublic":1,"isfriend":0,"isfamily":0},{"id":"51918420739","owner":"49292977@N08","secret":"ec8d5beed8","server":"65535","farm":66,"title":"AS
        YOU LIKE IT","ispublic":1,"isfriend":0,"isfamily":0},{"id":"51917126457","owner":"49292977@N08","secret":"7d8d44f0d4","server":"65535","farm":66,"title":"AS
        YOU LIKE IT","ispublic":1,"isfriend":0,"isfamily":0},{"id":"51918189238","owner":"49292977@N08","secret":"aaa12262c8","server":"65535","farm":66,"title":"AS
        YOU LIKE IT","ispublic":1,"isfriend":0,"isfamily":0},{"id":"51918413664","owner":"49292977@N08","secret":"1e313484ea","server":"65535","farm":66,"title":"AS
        YOU LIKE IT","ispublic":1,"isfriend":0,"isfamily":0},{"id":"51918412529","owner":"49292977@N08","secret":"0de36a6e06","server":"65535","farm":66,"title":"AS
        YOU LIKE IT","ispublic":1,"isfriend":0,"isfamily":0},{"id":"51918083391","owner":"49292977@N08","secret":"e1226aa1c3","server":"65535","farm":66,"title":"AS
        YOU LIKE IT","ispublic":1,"isfriend":0,"isfamily":0},{"id":"51918182893","owner":"49292977@N08","secret":"320290a218","server":"65535","farm":66,"title":"AS
        YOU LIKE IT","ispublic":1,"isfriend":0,"isfamily":0},{"id":"51917117387","owner":"49292977@N08","secret":"1f0f71a641","server":"65535","farm":66,"title":"AS
        YOU LIKE IT","ispublic":1,"isfriend":0,"isfamily":0},{"id":"51918180813","owner":"49292977@N08","secret":"ef6d0fbb84","server":"65535","farm":66,"title":"AS
        YOU LIKE IT","ispublic":1,"isfriend":0,"isfamily":0},{"id":"51918179758","owner":"49292977@N08","secret":"3f4eed1cd2","server":"65535","farm":66,"title":"AS
        YOU LIKE IT","ispublic":1,"isfriend":0,"isfamily":0},{"id":"51918078631","owner":"49292977@N08","secret":"ed0377b2fb","server":"65535","farm":66,"title":"AS
        YOU LIKE IT","ispublic":1,"isfriend":0,"isfamily":0},{"id":"51918077556","owner":"49292977@N08","secret":"963e2e97e9","server":"65535","farm":66,"title":"AS
        YOU LIKE IT","ispublic":1,"isfriend":0,"isfamily":0},{"id":"51918076366","owner":"49292977@N08","secret":"7dbd2f4786","server":"65535","farm":66,"title":"AS
        YOU LIKE IT","ispublic":1,"isfriend":0,"isfamily":0},{"id":"51918695055","owner":"49292977@N08","secret":"a96f849469","server":"65535","farm":66,"title":"AS
        YOU LIKE IT","ispublic":1,"isfriend":0,"isfamily":0},{"id":"51917110012","owner":"49292977@N08","secret":"88cfb27705","server":"65535","farm":66,"title":"AS
        YOU LIKE IT","ispublic":1,"isfriend":0,"isfamily":0},{"id":"51918073346","owner":"49292977@N08","secret":"ffdf08ee8e","server":"65535","farm":66,"title":"AS
        YOU LIKE IT","ispublic":1,"isfriend":0,"isfamily":0},{"id":"51918072571","owner":"49292977@N08","secret":"bd23666edb","server":"65535","farm":66,"title":"AS
        YOU LIKE IT","ispublic":1,"isfriend":0,"isfamily":0},{"id":"51917107072","owner":"49292977@N08","secret":"18d9b1b037","server":"65535","farm":66,"title":"AS
        YOU LIKE IT","ispublic":1,"isfriend":0,"isfamily":0},{"id":"51918071061","owner":"49292977@N08","secret":"1a20daf8f6","server":"65535","farm":66,"title":"AS
        YOU LIKE IT","ispublic":1,"isfriend":0,"isfamily":0},{"id":"51917105667","owner":"49292977@N08","secret":"c89bb46e28","server":"65535","farm":66,"title":"AS
        YOU LIKE IT","ispublic":1,"isfriend":0,"isfamily":0},{"id":"51918169508","owner":"49292977@N08","secret":"1aee7d8d26","server":"65535","farm":66,"title":"AS
        YOU LIKE IT","ispublic":1,"isfriend":0,"isfamily":0},{"id":"51918396209","owner":"49292977@N08","secret":"3a704867cd","server":"65535","farm":66,"title":"AS
        YOU LIKE IT","ispublic":1,"isfriend":0,"isfamily":0},{"id":"51918683640","owner":"49292977@N08","secret":"abfb886392","server":"65535","farm":66,"title":"AS
        YOU LIKE IT","ispublic":1,"isfriend":0,"isfamily":0},{"id":"51918391319","owner":"49292977@N08","secret":"0e4d687fa2","server":"65535","farm":66,"title":"AS
        YOU LIKE IT","ispublic":1,"isfriend":0,"isfamily":0},{"id":"51918062011","owner":"49292977@N08","secret":"a0ac77acbb","server":"65535","farm":66,"title":"AS
        YOU LIKE IT","ispublic":1,"isfriend":0,"isfamily":0},{"id":"51918060721","owner":"49292977@N08","secret":"9230f19fe1","server":"65535","farm":66,"title":"AS
        YOU LIKE IT","ispublic":1,"isfriend":0,"isfamily":0},{"id":"51918387629","owner":"49292977@N08","secret":"bb4ec77b25","server":"65535","farm":66,"title":"AS
        YOU LIKE IT","ispublic":1,"isfriend":0,"isfamily":0},{"id":"51918677920","owner":"49292977@N08","secret":"6b53931892","server":"65535","farm":66,"title":"AS
        YOU LIKE IT","ispublic":1,"isfriend":0,"isfamily":0},{"id":"51918384894","owner":"49292977@N08","secret":"e4f32a3865","server":"65535","farm":66,"title":"AS
        YOU LIKE IT","ispublic":1,"isfriend":0,"isfamily":0},{"id":"51918055461","owner":"49292977@N08","secret":"6a32afa5c1","server":"65535","farm":66,"title":"AS
        YOU LIKE IT","ispublic":1,"isfriend":0,"isfamily":0},{"id":"51918054516","owner":"49292977@N08","secret":"5cba1335fd","server":"65535","farm":66,"title":"AS
        YOU LIKE IT","ispublic":1,"isfriend":0,"isfamily":0},{"id":"51917088597","owner":"49292977@N08","secret":"266e033610","server":"65535","farm":66,"title":"AS
        YOU LIKE IT","ispublic":1,"isfriend":0,"isfamily":0},{"id":"51918151653","owner":"49292977@N08","secret":"54597ea627","server":"65535","farm":66,"title":"AS
        YOU LIKE IT","ispublic":1,"isfriend":0,"isfamily":0},{"id":"51917086677","owner":"49292977@N08","secret":"50c77be6c2","server":"65535","farm":66,"title":"AS
        YOU LIKE IT","ispublic":1,"isfriend":0,"isfamily":0},{"id":"51917085907","owner":"49292977@N08","secret":"4ff138dacc","server":"65535","farm":66,"title":"AS
        YOU LIKE IT","ispublic":1,"isfriend":0,"isfamily":0},{"id":"51917084612","owner":"49292977@N08","secret":"01ed04b1b6","server":"65535","farm":66,"title":"AS
        YOU LIKE IT","ispublic":1,"isfriend":0,"isfamily":0},{"id":"51917083432","owner":"49292977@N08","secret":"d3d4a85d1d","server":"65535","farm":66,"title":"AS
        YOU LIKE IT","ispublic":1,"isfriend":0,"isfamily":0},{"id":"51917081437","owner":"49292977@N08","secret":"504371e0da","server":"65535","farm":66,"title":"AS
        YOU LIKE IT","ispublic":1,"isfriend":0,"isfamily":0},{"id":"51918144778","owner":"49292977@N08","secret":"1cf1ccfe66","server":"65535","farm":66,"title":"AS
        YOU LIKE IT","ispublic":1,"isfriend":0,"isfamily":0},{"id":"51918664130","owner":"49292977@N08","secret":"15f928ac4a","server":"65535","farm":66,"title":"AS
        YOU LIKE IT","ispublic":1,"isfriend":0,"isfamily":0},{"id":"51918143173","owner":"49292977@N08","secret":"42274bedbe","server":"65535","farm":66,"title":"AS
        YOU LIKE IT","ispublic":1,"isfriend":0,"isfamily":0},{"id":"51918042816","owner":"49292977@N08","secret":"7323be83dd","server":"65535","farm":66,"title":"AS
        YOU LIKE IT","ispublic":1,"isfriend":0,"isfamily":0},{"id":"51917076987","owner":"49292977@N08","secret":"7e72ae117c","server":"65535","farm":66,"title":"AS
        YOU LIKE IT","ispublic":1,"isfriend":0,"isfamily":0},{"id":"51917075927","owner":"49292977@N08","secret":"9b7db0ea30","server":"65535","farm":66,"title":"AS
        YOU LIKE IT","ispublic":1,"isfriend":0,"isfamily":0},{"id":"51917072997","owner":"49292977@N08","secret":"0bf99b0b02","server":"65535","farm":66,"title":"AS
        YOU LIKE IT","ispublic":1,"isfriend":0,"isfamily":0},{"id":"51917072387","owner":"49292977@N08","secret":"7f05cd1b49","server":"65535","farm":66,"title":"AS
        YOU LIKE IT","ispublic":1,"isfriend":0,"isfamily":0},{"id":"51917071287","owner":"49292977@N08","secret":"de4d5e24bb","server":"65535","farm":66,"title":"AS
        YOU LIKE IT","ispublic":1,"isfriend":0,"isfamily":0},{"id":"51918134838","owner":"49292977@N08","secret":"30a92bf3a5","server":"65535","farm":66,"title":"AS
        YOU LIKE IT","ispublic":1,"isfriend":0,"isfamily":0},{"id":"51917069472","owner":"49292977@N08","secret":"d1aaf802f1","server":"65535","farm":66,"title":"AS
        YOU LIKE IT","ispublic":1,"isfriend":0,"isfamily":0},{"id":"51918653540","owner":"49292977@N08","secret":"4bc8bf9c17","server":"65535","farm":66,"title":"AS
        YOU LIKE IT","ispublic":1,"isfriend":0,"isfamily":0},{"id":"51917068022","owner":"49292977@N08","secret":"d46cf18fd9","server":"65535","farm":66,"title":"AS
        YOU LIKE IT","ispublic":1,"isfriend":0,"isfamily":0},{"id":"51918031641","owner":"49292977@N08","secret":"97fd84b85f","server":"65535","farm":66,"title":"AS
        YOU LIKE IT","ispublic":1,"isfriend":0,"isfamily":0},{"id":"51918130773","owner":"49292977@N08","secret":"8de30492f5","server":"65535","farm":66,"title":"AS
        YOU LIKE IT","ispublic":1,"isfriend":0,"isfamily":0},{"id":"51918358319","owner":"49292977@N08","secret":"51b1124f20","server":"65535","farm":66,"title":"AS
        YOU LIKE IT","ispublic":1,"isfriend":0,"isfamily":0},{"id":"51917065107","owner":"49292977@N08","secret":"73b4140a1b","server":"65535","farm":66,"title":"AS
        YOU LIKE IT","ispublic":1,"isfriend":0,"isfamily":0},{"id":"51918127723","owner":"49292977@N08","secret":"92c979cebc","server":"65535","farm":66,"title":"AS
        YOU LIKE IT","ispublic":1,"isfriend":0,"isfamily":0},{"id":"51918354969","owner":"49292977@N08","secret":"a8a0c00fb9","server":"65535","farm":66,"title":"AS
        YOU LIKE IT","ispublic":1,"isfriend":0,"isfamily":0},{"id":"51917060972","owner":"49292977@N08","secret":"30e3a517c4","server":"65535","farm":66,"title":"AS
        YOU LIKE IT","ispublic":1,"isfriend":0,"isfamily":0},{"id":"51918352469","owner":"49292977@N08","secret":"ff0fe35a8a","server":"65535","farm":66,"title":"AS
        YOU LIKE IT","ispublic":1,"isfriend":0,"isfamily":0},{"id":"51917058952","owner":"49292977@N08","secret":"b32fb913d8","server":"65535","farm":66,"title":"AS
        YOU LIKE IT","ispublic":1,"isfriend":0,"isfamily":0},{"id":"51918022361","owner":"49292977@N08","secret":"704df893a4","server":"65535","farm":66,"title":"AS
        YOU LIKE IT","ispublic":1,"isfriend":0,"isfamily":0},{"id":"51918640790","owner":"49292977@N08","secret":"0590c61280","server":"65535","farm":66,"title":"AS
        YOU LIKE IT","ispublic":1,"isfriend":0,"isfamily":0},{"id":"51917055537","owner":"49292977@N08","secret":"d60674c991","server":"65535","farm":66,"title":"AS
        YOU LIKE IT","ispublic":1,"isfriend":0,"isfamily":0},{"id":"51918019216","owner":"49292977@N08","secret":"26d28e755d","server":"65535","farm":66,"title":"AS
        YOU LIKE IT","ispublic":1,"isfriend":0,"isfamily":0},{"id":"51918638050","owner":"49292977@N08","secret":"d964a71d56","server":"65535","farm":66,"title":"AS
        YOU LIKE IT","ispublic":1,"isfriend":0,"isfamily":0},{"id":"51917052707","owner":"49292977@N08","secret":"2495c2a944","server":"65535","farm":66,"title":"AS
        YOU LIKE IT","ispublic":1,"isfriend":0,"isfamily":0},{"id":"51918636030","owner":"49292977@N08","secret":"96d0f74b87","server":"65535","farm":66,"title":"AS
        YOU LIKE IT","ispublic":1,"isfriend":0,"isfamily":0},{"id":"51918634820","owner":"49292977@N08","secret":"a09e2f977c","server":"65535","farm":66,"title":"AS
        YOU LIKE IT","ispublic":1,"isfriend":0,"isfamily":0},{"id":"51918013951","owner":"49292977@N08","secret":"f0c604c83d","server":"65535","farm":66,"title":"AS
        YOU LIKE IT","ispublic":1,"isfriend":0,"isfamily":0},{"id":"51918112463","owner":"49292977@N08","secret":"a9f1c79bea","server":"65535","farm":66,"title":"AS
        YOU LIKE IT","ispublic":1,"isfriend":0,"isfamily":0},{"id":"51917047177","owner":"49292977@N08","secret":"893e04bda2","server":"65535","farm":66,"title":"AS
        YOU LIKE IT","ispublic":1,"isfriend":0,"isfamily":0},{"id":"51917045927","owner":"49292977@N08","secret":"9508218e8b","server":"65535","farm":66,"title":"AS
        YOU LIKE IT","ispublic":1,"isfriend":0,"isfamily":0},{"id":"51917042197","owner":"49292977@N08","secret":"e4b8c95ff6","server":"65535","farm":66,"title":"AS
        YOU LIKE IT","ispublic":1,"isfriend":0,"isfamily":0},{"id":"51918105368","owner":"49292977@N08","secret":"96bac4fd17","server":"65535","farm":66,"title":"AS
        YOU LIKE IT","ispublic":1,"isfriend":0,"isfamily":0}]},"stat":"ok"}'
  recorded_at: Sun, 06 Mar 2022 04:42:43 GMT
recorded_with: VCR 6.0.0
