---
http_interactions:
- request:
    method: get
    uri: https://api.flickr.com/services/rest?api_key=<api_key>&format=json&method=flickr.photos.search&nojsoncallback=1&tag=skyline&text=boston,%20ma
    body:
      encoding: US-ASCII
      string: ''
    headers:
      User-Agent:
      - Faraday v2.2.0
      Accept-Encoding:
      - gzip;q=1.0,deflate;q=0.6,identity;q=0.3
      Accept:
      - "*/*"
  response:
    status:
      code: 200
      message: OK
    headers:
      Content-Type:
      - application/json
      Transfer-Encoding:
      - chunked
      Connection:
      - keep-alive
      Date:
      - Mon, 07 Mar 2022 01:26:52 GMT
      Server:
      - Apache/2.4.52 (Ubuntu)
      Set-Cookie:
      - ccc=%7B%22needsConsent%22%3Afalse%2C%22managed%22%3A0%2C%22changed%22%3A0%2C%22info%22%3A%7B%22cookieBlock%22%3A%7B%22level%22%3A0%2C%22blockRan%22%3A0%7D%7D%7D;
        expires=Wed, 06-Apr-2022 01:26:52 GMT; Max-Age=2592000; path=/; domain=.flickr.com
      X-Content-Type-Options:
      - nosniff
      X-Frame-Options:
      - SAMEORIGIN
      X-Cache:
      - Miss from cloudfront
      Via:
      - 1.1 02400e961e7094d2c4fff83bc2205fc2.cloudfront.net (CloudFront)
      X-Amz-Cf-Pop:
      - DEN50-C1
      X-Amz-Cf-Id:
      - soBAsaVvYH1dpDPudXNDcknIY-rQmupbqWOD_tmU-sW04bby2JryKQ==
    body:
      encoding: UTF-8
      string: '{"photos":{"page":1,"pages":7779,"perpage":100,"total":777806,"photo":[{"id":"51923243765","owner":"61298119@N03","secret":"a19f7d5132","server":"65535","farm":66,"title":"Five
        Boats","ispublic":1,"isfriend":0,"isfamily":0},{"id":"51922712638","owner":"61298119@N03","secret":"4486c0bd3b","server":"65535","farm":66,"title":"Vintage
        and Modern Mono","ispublic":1,"isfriend":0,"isfamily":0},{"id":"51921646867","owner":"61298119@N03","secret":"4d1a97a8eb","server":"65535","farm":66,"title":"Three
        Tugs Off Charlestown","ispublic":1,"isfriend":0,"isfamily":0},{"id":"51923044965","owner":"23431299@N07","secret":"6a6cf995b6","server":"65535","farm":66,"title":"220306UKAP002","ispublic":1,"isfriend":0,"isfamily":0},{"id":"51923044935","owner":"23431299@N07","secret":"65f9da573e","server":"65535","farm":66,"title":"220306UKAP003","ispublic":1,"isfriend":0,"isfamily":0},{"id":"51922422791","owner":"23431299@N07","secret":"9526b6916d","server":"65535","farm":66,"title":"220306UKAP006","ispublic":1,"isfriend":0,"isfamily":0},{"id":"51921452027","owner":"23431299@N07","secret":"b612e59b75","server":"65535","farm":66,"title":"220306UKAP005","ispublic":1,"isfriend":0,"isfamily":0},{"id":"51923044910","owner":"23431299@N07","secret":"6cd45b2016","server":"65535","farm":66,"title":"220306UKAP007","ispublic":1,"isfriend":0,"isfamily":0},{"id":"51921451962","owner":"23431299@N07","secret":"0f3aa38522","server":"65535","farm":66,"title":"220306UKAP010","ispublic":1,"isfriend":0,"isfamily":0},{"id":"51922422751","owner":"23431299@N07","secret":"0c96139507","server":"65535","farm":66,"title":"220306UKAP012","ispublic":1,"isfriend":0,"isfamily":0},{"id":"51921451907","owner":"23431299@N07","secret":"a4b74d4a5d","server":"65535","farm":66,"title":"220306UKAP015","ispublic":1,"isfriend":0,"isfamily":0},{"id":"51922756824","owner":"23431299@N07","secret":"c14e1b4c3e","server":"65535","farm":66,"title":"220306UKAP013","ispublic":1,"isfriend":0,"isfamily":0},{"id":"51923044830","owner":"23431299@N07","secret":"ce5e7b432c","server":"65535","farm":66,"title":"220306UKAP016","ispublic":1,"isfriend":0,"isfamily":0},{"id":"51921451862","owner":"23431299@N07","secret":"6047e0f295","server":"65535","farm":66,"title":"220306UKAP017","ispublic":1,"isfriend":0,"isfamily":0},{"id":"51922756739","owner":"23431299@N07","secret":"2a7e194193","server":"65535","farm":66,"title":"220306UKAP019","ispublic":1,"isfriend":0,"isfamily":0},{"id":"51921451817","owner":"23431299@N07","secret":"75a184bf7b","server":"65535","farm":66,"title":"220306UKAP020","ispublic":1,"isfriend":0,"isfamily":0},{"id":"51922516798","owner":"23431299@N07","secret":"f741dfdcc4","server":"65535","farm":66,"title":"220306UKAP021","ispublic":1,"isfriend":0,"isfamily":0},{"id":"51922756644","owner":"23431299@N07","secret":"0c0a3e019d","server":"65535","farm":66,"title":"220306UKAP022","ispublic":1,"isfriend":0,"isfamily":0},{"id":"51922756584","owner":"23431299@N07","secret":"7ae79a9e0d","server":"65535","farm":66,"title":"220306UKAP023","ispublic":1,"isfriend":0,"isfamily":0},{"id":"51922516688","owner":"23431299@N07","secret":"b7b1aa837e","server":"65535","farm":66,"title":"220306UKAP025","ispublic":1,"isfriend":0,"isfamily":0},{"id":"51922756539","owner":"23431299@N07","secret":"6d29ee97fb","server":"65535","farm":66,"title":"220306UKAP027","ispublic":1,"isfriend":0,"isfamily":0},{"id":"51921451572","owner":"23431299@N07","secret":"f70771900f","server":"65535","farm":66,"title":"220306UKAP028","ispublic":1,"isfriend":0,"isfamily":0},{"id":"51921451612","owner":"23431299@N07","secret":"e031b4ede0","server":"65535","farm":66,"title":"220306UKAP026","ispublic":1,"isfriend":0,"isfamily":0},{"id":"51922756504","owner":"23431299@N07","secret":"52bb44bc98","server":"65535","farm":66,"title":"220306UKAP032","ispublic":1,"isfriend":0,"isfamily":0},{"id":"51922422396","owner":"23431299@N07","secret":"49f5c511aa","server":"65535","farm":66,"title":"220306UKAP031","ispublic":1,"isfriend":0,"isfamily":0},{"id":"51922516618","owner":"23431299@N07","secret":"17e475192a","server":"65535","farm":66,"title":"220306UKAP033","ispublic":1,"isfriend":0,"isfamily":0},{"id":"51922422361","owner":"23431299@N07","secret":"36129ef83c","server":"65535","farm":66,"title":"220306UKAP034","ispublic":1,"isfriend":0,"isfamily":0},{"id":"51922422336","owner":"23431299@N07","secret":"44efd5f943","server":"65535","farm":66,"title":"220306UKAP035","ispublic":1,"isfriend":0,"isfamily":0},{"id":"51921451482","owner":"23431299@N07","secret":"9ef831a370","server":"65535","farm":66,"title":"220306UKAP036","ispublic":1,"isfriend":0,"isfamily":0},{"id":"51922516548","owner":"23431299@N07","secret":"b55c5f2db6","server":"65535","farm":66,"title":"220306UKAP037","ispublic":1,"isfriend":0,"isfamily":0},{"id":"51922422276","owner":"23431299@N07","secret":"e2e7c4c19d","server":"65535","farm":66,"title":"220306UKAP038","ispublic":1,"isfriend":0,"isfamily":0},{"id":"51923044495","owner":"23431299@N07","secret":"126ba76338","server":"65535","farm":66,"title":"220306UKAP039","ispublic":1,"isfriend":0,"isfamily":0},{"id":"51922756269","owner":"23431299@N07","secret":"93f2e1f396","server":"65535","farm":66,"title":"220306UKAP043","ispublic":1,"isfriend":0,"isfamily":0},{"id":"51922756249","owner":"23431299@N07","secret":"e961784041","server":"65535","farm":66,"title":"220306UKAP044","ispublic":1,"isfriend":0,"isfamily":0},{"id":"51921451307","owner":"23431299@N07","secret":"974623e13d","server":"65535","farm":66,"title":"220306UKAP046","ispublic":1,"isfriend":0,"isfamily":0},{"id":"51922756189","owner":"23431299@N07","secret":"4ab4e245d6","server":"65535","farm":66,"title":"220306UKAP045","ispublic":1,"isfriend":0,"isfamily":0},{"id":"51922516378","owner":"23431299@N07","secret":"ab49686e30","server":"65535","farm":66,"title":"220306UKAP047","ispublic":1,"isfriend":0,"isfamily":0},{"id":"51922422141","owner":"23431299@N07","secret":"650e5d5bf4","server":"65535","farm":66,"title":"220306UKAP048","ispublic":1,"isfriend":0,"isfamily":0},{"id":"51923044305","owner":"23431299@N07","secret":"c143886c5f","server":"65535","farm":66,"title":"220306UKAP049","ispublic":1,"isfriend":0,"isfamily":0},{"id":"51922422111","owner":"23431299@N07","secret":"b5e1fc9cbf","server":"65535","farm":66,"title":"220306UKAP050","ispublic":1,"isfriend":0,"isfamily":0},{"id":"51922516273","owner":"23431299@N07","secret":"b4288e81f8","server":"65535","farm":66,"title":"220306UKAP052","ispublic":1,"isfriend":0,"isfamily":0},{"id":"51922516308","owner":"23431299@N07","secret":"8a657c979a","server":"65535","farm":66,"title":"220306UKAP051","ispublic":1,"isfriend":0,"isfamily":0},{"id":"51922422046","owner":"23431299@N07","secret":"a66c7e657d","server":"65535","farm":66,"title":"220306UKAP053","ispublic":1,"isfriend":0,"isfamily":0},{"id":"51922421991","owner":"23431299@N07","secret":"a858a3478f","server":"65535","farm":66,"title":"220306UKAP054","ispublic":1,"isfriend":0,"isfamily":0},{"id":"51923044165","owner":"23431299@N07","secret":"24e200f810","server":"65535","farm":66,"title":"220306UKAP055","ispublic":1,"isfriend":0,"isfamily":0},{"id":"51922516168","owner":"23431299@N07","secret":"174591b838","server":"65535","farm":66,"title":"220306UKAP018","ispublic":1,"isfriend":0,"isfamily":0},{"id":"51922421901","owner":"23431299@N07","secret":"3b936df529","server":"65535","farm":66,"title":"220306UKAP029","ispublic":1,"isfriend":0,"isfamily":0},{"id":"51922421846","owner":"23431299@N07","secret":"725e51f59f","server":"65535","farm":66,"title":"220306UKAP058","ispublic":1,"isfriend":0,"isfamily":0},{"id":"51922755829","owner":"23431299@N07","secret":"a310682788","server":"65535","farm":66,"title":"220306UKAP040","ispublic":1,"isfriend":0,"isfamily":0},{"id":"51922393536","owner":"185973125@N04","secret":"bfd23ec984","server":"65535","farm":66,"title":"Phillips
        Street","ispublic":1,"isfriend":0,"isfamily":0},{"id":"51921872885","owner":"48232993@N00","secret":"8b7c4b8505","server":"65535","farm":66,"title":"decaying
        foam float","ispublic":1,"isfriend":0,"isfamily":0},{"id":"51921872215","owner":"48232993@N00","secret":"a18d358769","server":"65535","farm":66,"title":"leafless
        Boston Ivy","ispublic":1,"isfriend":0,"isfamily":0},{"id":"51921162598","owner":"181766792@N05","secret":"e4023450fa","server":"65535","farm":66,"title":"Cabot''s
        Sylpho-Nathol Bottle","ispublic":1,"isfriend":0,"isfamily":0},{"id":"51920882026","owner":"195070409@N05","secret":"1035d9fda8","server":"65535","farm":66,"title":"Top
        20 c\u00e1c h\u00e3ng gi\u00e0y n\u1ed5i ti\u1ebfng g\u00e2y s\u1ed1t trong
        gi\u1edbi tr\u1ebb","ispublic":1,"isfriend":0,"isfamily":0},{"id":"51920256281","owner":"61298119@N03","secret":"d38be46348","server":"65535","farm":66,"title":"Hill
        and Waterfront 2","ispublic":1,"isfriend":0,"isfamily":0},{"id":"51920587459","owner":"61298119@N03","secret":"6bd76b860b","server":"65535","farm":66,"title":"Tug
        and Ice","ispublic":1,"isfriend":0,"isfamily":0},{"id":"51920070766","owner":"38315261@N00","secret":"a37ac4cf99","server":"65535","farm":66,"title":"Vincent
        van Gogh, Postman Joseph Roulin, 1888, Oil on canvas, 10\/3\/21 #mfaboston","ispublic":1,"isfriend":0,"isfamily":0},{"id":"51919564098","owner":"57229592@N03","secret":"847a3a85e0","server":"65535","farm":66,"title":"Richard
        Vaughn Kennedy, circa 1937","ispublic":1,"isfriend":0,"isfamily":0},{"id":"51919614704","owner":"48232993@N00","secret":"6dd1156958","server":"65535","farm":66,"title":"bucket
        emptying","ispublic":1,"isfriend":0,"isfamily":0},{"id":"51919614074","owner":"48232993@N00","secret":"4fe496dbf7","server":"65535","farm":66,"title":"dripping
        bucket","ispublic":1,"isfriend":0,"isfamily":0},{"id":"51918316827","owner":"48232993@N00","secret":"bd5fe704ee","server":"65535","farm":66,"title":"crawler
        crane and bucket","ispublic":1,"isfriend":0,"isfamily":0},{"id":"51918316427","owner":"48232993@N00","secret":"a2ec958db2","server":"65535","farm":66,"title":"dredging
        off Castle Island","ispublic":1,"isfriend":0,"isfamily":0},{"id":"51919283761","owner":"48232993@N00","secret":"c29678bc05","server":"65535","farm":66,"title":"dredging
        off Castle Island","ispublic":1,"isfriend":0,"isfamily":0},{"id":"51919283366","owner":"48232993@N00","secret":"f110666314","server":"65535","farm":66,"title":"wrack
        line, N side Castle Island","ispublic":1,"isfriend":0,"isfamily":0},{"id":"51919283071","owner":"48232993@N00","secret":"c7db4870a3","server":"65535","farm":66,"title":"tide-stained
        riprap","ispublic":1,"isfriend":0,"isfamily":0},{"id":"51919612164","owner":"48232993@N00","secret":"56034a1fcf","server":"65535","farm":66,"title":"pilings
        at low tide","ispublic":1,"isfriend":0,"isfamily":0},{"id":"51919900735","owner":"48232993@N00","secret":"8035177e7f","server":"65535","farm":66,"title":"tugboat
        Shannon Dann","ispublic":1,"isfriend":0,"isfamily":0},{"id":"51918227568","owner":"49292977@N08","secret":"9c211b5d6c","server":"65535","farm":66,"title":"AS
        YOU LIKE IT","ispublic":1,"isfriend":0,"isfamily":0},{"id":"51918743110","owner":"49292977@N08","secret":"b57a550b15","server":"65535","farm":66,"title":"AS
        YOU LIKE IT","ispublic":1,"isfriend":0,"isfamily":0},{"id":"51918449854","owner":"49292977@N08","secret":"42dff9e297","server":"65535","farm":66,"title":"AS
        YOU LIKE IT","ispublic":1,"isfriend":0,"isfamily":0},{"id":"51918447379","owner":"49292977@N08","secret":"24de4928c2","server":"65535","farm":66,"title":"AS
        YOU LIKE IT","ispublic":1,"isfriend":0,"isfamily":0},{"id":"51917152597","owner":"49292977@N08","secret":"6b5ce35598","server":"65535","farm":66,"title":"AS
        YOU LIKE IT","ispublic":1,"isfriend":0,"isfamily":0},{"id":"51918734505","owner":"49292977@N08","secret":"f5eea67498","server":"65535","farm":66,"title":"AS
        YOU LIKE IT","ispublic":1,"isfriend":0,"isfamily":0},{"id":"51918212018","owner":"49292977@N08","secret":"aefb0581ef","server":"65535","farm":66,"title":"AS
        YOU LIKE IT","ispublic":1,"isfriend":0,"isfamily":0},{"id":"51918727795","owner":"49292977@N08","secret":"76d30d0dd0","server":"65535","farm":66,"title":"AS
        YOU LIKE IT","ispublic":1,"isfriend":0,"isfamily":0},{"id":"51917140657","owner":"49292977@N08","secret":"fa2048902e","server":"65535","farm":66,"title":"AS
        YOU LIKE IT","ispublic":1,"isfriend":0,"isfamily":0},{"id":"51918430709","owner":"49292977@N08","secret":"fa25bd408f","server":"65535","farm":66,"title":"AS
        YOU LIKE IT","ispublic":1,"isfriend":0,"isfamily":0},{"id":"51918099536","owner":"49292977@N08","secret":"e9c11c1e04","server":"65535","farm":66,"title":"AS
        YOU LIKE IT","ispublic":1,"isfriend":0,"isfamily":0},{"id":"51918197488","owner":"49292977@N08","secret":"b8c4740f1a","server":"65535","farm":66,"title":"AS
        YOU LIKE IT","ispublic":1,"isfriend":0,"isfamily":0},{"id":"51918715150","owner":"49292977@N08","secret":"e0d0f11e94","server":"65535","farm":66,"title":"AS
        YOU LIKE IT","ispublic":1,"isfriend":0,"isfamily":0},{"id":"51918422389","owner":"49292977@N08","secret":"61137bf49f","server":"65535","farm":66,"title":"AS
        YOU LIKE IT","ispublic":1,"isfriend":0,"isfamily":0},{"id":"51918420739","owner":"49292977@N08","secret":"ec8d5beed8","server":"65535","farm":66,"title":"AS
        YOU LIKE IT","ispublic":1,"isfriend":0,"isfamily":0},{"id":"51917126457","owner":"49292977@N08","secret":"7d8d44f0d4","server":"65535","farm":66,"title":"AS
        YOU LIKE IT","ispublic":1,"isfriend":0,"isfamily":0},{"id":"51918189238","owner":"49292977@N08","secret":"aaa12262c8","server":"65535","farm":66,"title":"AS
        YOU LIKE IT","ispublic":1,"isfriend":0,"isfamily":0},{"id":"51918413664","owner":"49292977@N08","secret":"1e313484ea","server":"65535","farm":66,"title":"AS
        YOU LIKE IT","ispublic":1,"isfriend":0,"isfamily":0},{"id":"51918412529","owner":"49292977@N08","secret":"0de36a6e06","server":"65535","farm":66,"title":"AS
        YOU LIKE IT","ispublic":1,"isfriend":0,"isfamily":0},{"id":"51918083391","owner":"49292977@N08","secret":"e1226aa1c3","server":"65535","farm":66,"title":"AS
        YOU LIKE IT","ispublic":1,"isfriend":0,"isfamily":0},{"id":"51918182893","owner":"49292977@N08","secret":"320290a218","server":"65535","farm":66,"title":"AS
        YOU LIKE IT","ispublic":1,"isfriend":0,"isfamily":0},{"id":"51917117387","owner":"49292977@N08","secret":"1f0f71a641","server":"65535","farm":66,"title":"AS
        YOU LIKE IT","ispublic":1,"isfriend":0,"isfamily":0},{"id":"51918180813","owner":"49292977@N08","secret":"ef6d0fbb84","server":"65535","farm":66,"title":"AS
        YOU LIKE IT","ispublic":1,"isfriend":0,"isfamily":0},{"id":"51918179758","owner":"49292977@N08","secret":"3f4eed1cd2","server":"65535","farm":66,"title":"AS
        YOU LIKE IT","ispublic":1,"isfriend":0,"isfamily":0},{"id":"51918078631","owner":"49292977@N08","secret":"ed0377b2fb","server":"65535","farm":66,"title":"AS
        YOU LIKE IT","ispublic":1,"isfriend":0,"isfamily":0},{"id":"51918076366","owner":"49292977@N08","secret":"7dbd2f4786","server":"65535","farm":66,"title":"AS
        YOU LIKE IT","ispublic":1,"isfriend":0,"isfamily":0},{"id":"51918695055","owner":"49292977@N08","secret":"a96f849469","server":"65535","farm":66,"title":"AS
        YOU LIKE IT","ispublic":1,"isfriend":0,"isfamily":0},{"id":"51917110012","owner":"49292977@N08","secret":"88cfb27705","server":"65535","farm":66,"title":"AS
        YOU LIKE IT","ispublic":1,"isfriend":0,"isfamily":0},{"id":"51918073346","owner":"49292977@N08","secret":"ffdf08ee8e","server":"65535","farm":66,"title":"AS
        YOU LIKE IT","ispublic":1,"isfriend":0,"isfamily":0},{"id":"51918072571","owner":"49292977@N08","secret":"bd23666edb","server":"65535","farm":66,"title":"AS
        YOU LIKE IT","ispublic":1,"isfriend":0,"isfamily":0},{"id":"51917107072","owner":"49292977@N08","secret":"18d9b1b037","server":"65535","farm":66,"title":"AS
        YOU LIKE IT","ispublic":1,"isfriend":0,"isfamily":0},{"id":"51918071061","owner":"49292977@N08","secret":"1a20daf8f6","server":"65535","farm":66,"title":"AS
        YOU LIKE IT","ispublic":1,"isfriend":0,"isfamily":0},{"id":"51917105667","owner":"49292977@N08","secret":"c89bb46e28","server":"65535","farm":66,"title":"AS
        YOU LIKE IT","ispublic":1,"isfriend":0,"isfamily":0}]},"stat":"ok"}'
  recorded_at: Mon, 07 Mar 2022 01:26:52 GMT
recorded_with: VCR 6.0.0
